<?xml version="1.0" encoding="UTF-8" standalone="no"?>
<!-- Generator: Adobe Illustrator 19.0.0, SVG Export Plug-In . SVG Version: 6.00 Build 0)  -->
<!DOCTYPE svg PUBLIC "-//W3C//DTD SVG 1.1//EN" "http://www.w3.org/Graphics/SVG/1.1/DTD/svg11.dtd">
<svg id="Layer_1" style="enable-background:new 0 0 467.8 71.5" xmlns="http://www.w3.org/2000/svg" xml:space="preserve" viewBox="0 0 467.8 71.5" version="1.1" y="0px" x="0px" xmlns:xlink="http://www.w3.org/1999/xlink">
<style type="text/css">
	.st0{fill:#FFFFFF;}
	.st1{fill:none;}
</style>
<switch>
	<foreignObject y="0" x="0" height="1" width="1" requiredExtensions="http://ns.adobe.com/AdobeIllustrator/10.0/">
	</foreignObject>
	<g>
		<g id="XMLID_416_">
			<path id="XMLID_2_" d="m42 2.5c-0.8-2.2-3.5-1.2-3.5-1.2s-3.7 0.5-4.3 0.8c-0.4-0.5-1.2-1.2-2.3-1.7-2-0.8-3.8-0.3-4.3-0.2-1.7 0.3-5.8 1.4-9.5 4.8-3.6 3.3-5 7.1-5.5 8.8-1.3 0.1-5 0.4-8.3 3.2-2.5 2-3.7 4.4-4.2 5.7 0.9-0.2 3-0.6 5.5 0.2 2.4 0.7 3.9 2.2 4.5 2.8 0.1 2.9 0.6 8 3.3 13.7 2.6 5.4 6 8.9 8.2 10.8-0.4 2.5-0.4 4.6-0.3 6 0.1 1.9 0.2 3 0.8 4.3 1 2.1 2.9 3.2 3.8 3.7-0.2-1.3-0.3-3.4 0.3-5.8 0.5-2 1.4-3.5 2-4.5 0.5-0.7 1.6-2 3.3-3s3.3-1.2 4.2-1.3c-0.5-0.6-1.2-1.2-2-1.7-3.5-2.1-7.3-1.3-8.5-1-1-2.1-2.4-5.7-2.5-10.3-0.2-7.5 2.9-12.9 4.3-15 0.8 0.8 1.6 1.9 2.5 3.2 1 1.6 1.6 3.1 2 4.3 0.6-1.5 1.4-4 1.3-7.2 0-2.9-0.8-5.2-1.3-6.7 1.8-1.4 3.7-3 5.7-4.8 1.3-1.2 2.9-2.9 3.7-3.7 0.9-1.1 1.9-2.1 1.1-4.2z" class="st0"/>
			<path id="XMLID_3_" d="m36.7 31.5c0.5-1.4 2.2-0.7 2.2-0.7s2.3 0.3 2.8 0.5c0.3-0.3 0.7-0.8 1.5-1.1 1.3-0.5 2.4-0.2 2.8-0.1 1.1 0.2 3.7 0.8 6.1 3.1 2.7 2.6 3.4 5.6 3.5 6.6 0.9 0.1 3.2 0.4 5.3 2.3 1.4 1.3 2.1 2.7 2.4 3.5-0.8-0.1-1.9-0.3-3.2-0.1s-2.2 0.6-2.9 0.9c-0.4 2.2-1.1 5.2-2.7 8.5-1.5 3.2-3.3 5.6-4.7 7.3 0.3 1.6 0.3 2.9 0.2 3.8-0.1 1.2-0.1 2-0.5 2.8-1.2 2.3-4.5 2.6-5.2 2.7 0.1-0.2 1.7-3.3 0-6.4-1.5-2.7-4.3-3.2-4.7-3.2 0.5-0.4 1.2-0.9 2-1.2 2.5-1.1 4.8-0.8 5.9-0.5 0.3-2.4 0.5-5.4 0.1-8.9-0.3-2.8-0.8-5.3-1.3-7.4-0.5 0.2-1.3 0.7-2 1.5-0.9 1.1-1.2 2.3-1.3 2.8-0.2-0.3-1.8-1.9-1.6-4.4 0.2-2.4 1.7-3.8 2-4-1.2-0.9-2.4-1.9-3.6-3.1-0.8-0.8-1.5-1.4-2.4-2.4s-1.2-1.5-0.7-2.8z" class="st0"/>
		</g>
		<g id="XMLID_1_">
			<rect id="XMLID_52_" class="st1" height="32.3" width="394.3" y="16" x="80.8"/>
			<path id="XMLID_6_" d="m97.8 20.6c-3.3 0-5.9 1.1-7.8 3.3s-2.9 5.2-2.9 9c0 3.9 0.9 7 2.8 9.1 1.8 2.1 4.5 3.2 7.9 3.2 2.1 0 4.5-0.4 7.2-1.1v3.1c-2.1 0.8-4.6 1.2-7.7 1.2-4.4 0-7.8-1.3-10.2-4s-3.6-6.5-3.6-11.4c0-3.1 0.6-5.8 1.7-8.1s2.8-4.1 5-5.4 4.7-1.9 7.7-1.9c3.1 0 5.9 0.6 8.2 1.7l-1.5 3c-2.3-1.1-4.5-1.7-6.8-1.7z" class="st0"/>
			<path id="XMLID_8_" d="m125 47.9v-14.5c0-1.8-0.4-3.2-1.3-4.1s-2.1-1.4-3.9-1.4c-2.4 0-4.1 0.6-5.2 1.9s-1.6 3.4-1.6 6.3v11.8h-3.4v-31.9h3.4v9.7c0 1.2-0.1 2.1-0.2 2.9h0.2c0.7-1.1 1.6-1.9 2.9-2.6s2.6-0.9 4.2-0.9c2.7 0 4.8 0.7 6.2 2s2.1 3.4 2.1 6.2v14.7h-3.4z" class="st0"/>
			<path id="XMLID_10_" d="m143.5 48.3c-3.3 0-5.9-1-7.9-3s-2.9-4.8-2.9-8.4c0-3.6 0.9-6.5 2.7-8.6s4.2-3.2 7.2-3.2c2.8 0 5 0.9 6.7 2.8s2.5 4.3 2.5 7.3v2.2h-15.5c0.1 2.6 0.7 4.6 2 6s3 2.1 5.3 2.1c2.4 0 4.8-0.5 7.2-1.5v3c-1.2 0.5-2.3 0.9-3.4 1.1-1.1 0.1-2.4 0.2-3.9 0.2zm-0.9-20.4c-1.8 0-3.2 0.6-4.3 1.8s-1.7 2.8-1.9 4.9h11.8c0-2.1-0.5-3.8-1.4-4.9-1.1-1.2-2.4-1.8-4.2-1.8z" class="st0"/>
			<path id="XMLID_13_" d="m170.7 41.8c0 2.1-0.8 3.7-2.3 4.8s-3.7 1.7-6.6 1.7c-3 0-5.3-0.5-7-1.4v-3.2c1.1 0.5 2.2 1 3.5 1.3s2.4 0.5 3.6 0.5c1.8 0 3.1-0.3 4.1-0.9s1.4-1.4 1.4-2.6c0-0.9-0.4-1.6-1.1-2.2s-2.2-1.4-4.4-2.2c-2.1-0.8-3.6-1.5-4.5-2-0.9-0.6-1.5-1.2-2-2-0.4-0.7-0.6-1.6-0.6-2.6 0-1.8 0.7-3.3 2.2-4.3s3.5-1.6 6.1-1.6c2.4 0 4.8 0.5 7.1 1.5l-1.2 2.8c-2.3-0.9-4.3-1.4-6.1-1.4-1.6 0-2.8 0.3-3.7 0.8s-1.2 1.2-1.2 2.1c0 0.6 0.2 1.1 0.5 1.5s0.8 0.8 1.5 1.2 2 0.9 3.9 1.7c2.7 1 4.5 1.9 5.4 2.9s1.4 2.1 1.4 3.6z" class="st0"/>
			<path id="XMLID_15_" d="m182.2 45.5c0.6 0 1.2 0 1.7-0.1 0.6-0.1 1-0.2 1.3-0.3v2.6c-0.4 0.2-0.9 0.3-1.6 0.4s-1.4 0.2-1.9 0.2c-4.3 0-6.5-2.3-6.5-6.9v-13.3h-3.2v-1.6l3.2-1.4 1.4-4.8h2v5.2h6.5v2.6h-6.5v13.2c0 1.4 0.3 2.4 1 3.1s1.5 1.1 2.6 1.1z" class="st0"/>
			<path id="XMLID_17_" d="m197.9 48.3c-3.3 0-5.9-1-7.9-3s-2.9-4.8-2.9-8.4c0-3.6 0.9-6.5 2.7-8.6s4.2-3.3 7.2-3.3c2.8 0 5 0.9 6.7 2.8s2.5 4.3 2.5 7.3v2.2h-15.5c0.1 2.6 0.7 4.6 2 6s3 2.1 5.3 2.1c2.4 0 4.8-0.5 7.2-1.5v3c-1.2 0.5-2.3 0.9-3.4 1.1s-2.4 0.3-3.9 0.3zm-0.9-20.4c-1.8 0-3.2 0.6-4.3 1.8s-1.7 2.8-1.9 4.9h11.8c0-2.1-0.5-3.8-1.4-4.9-1.1-1.2-2.4-1.8-4.2-1.8z" class="st0"/>
			<path id="XMLID_20_" d="m220.9 25c1 0 1.9 0.1 2.7 0.2l-0.5 3.2c-0.9-0.2-1.8-0.3-2.5-0.3-1.8 0-3.4 0.7-4.7 2.2s-1.9 3.3-1.9 5.5v12.1h-3.4v-22.5h2.8l0.4 4.2h0.2c0.8-1.5 1.8-2.6 3-3.4s2.5-1.2 3.9-1.2z" class="st0"/>
			<path id="XMLID_22_" d="m224.6 38.2v-3.1h10.1v3.1h-10.1z" class="st0"/>
			<path id="XMLID_24_" d="m242 47.9h-3.4v-31.9h3.4v31.9z" class="st0"/>
			<path id="XMLID_26_" d="m257.4 48.3c-3.3 0-5.9-1-7.9-3-1.9-2-2.9-4.8-2.9-8.4s0.9-6.5 2.7-8.6 4.2-3.2 7.2-3.2c2.8 0 5 0.9 6.7 2.8s2.5 4.3 2.5 7.3v2.2h-15.5c0.1 2.6 0.7 4.6 2 6s3 2.1 5.3 2.1c2.4 0 4.8-0.5 7.2-1.5v3c-1.2 0.5-2.3 0.9-3.4 1.1-1.1 0.1-2.4 0.2-3.9 0.2zm-0.9-20.4c-1.8 0-3.2 0.6-4.3 1.8s-1.7 2.8-1.9 4.9h11.7c0-2.1-0.5-3.8-1.4-4.9-1-1.2-2.4-1.8-4.1-1.8z" class="st0"/>
			<path id="XMLID_29_" d="m268.2 38.2v-3.1h10.1v3.1h-10.1z" class="st0"/>
			<path id="XMLID_31_" d="m299.7 39.9c0 2.6-1 4.7-2.9 6.2s-4.5 2.2-7.8 2.2c-3.6 0-6.3-0.5-8.2-1.4v-3.4c1.2 0.5 2.6 0.9 4 1.2s2.9 0.5 4.3 0.5c2.3 0 4.1-0.4 5.2-1.3 1.2-0.9 1.8-2.1 1.8-3.7 0-1-0.2-1.9-0.6-2.6s-1.1-1.3-2.1-1.8c-1-0.6-2.5-1.2-4.5-1.9-2.8-1-4.8-2.2-6-3.5s-1.8-3.2-1.8-5.4c0-2.3 0.9-4.1 2.6-5.5s4-2.1 6.9-2.1c3 0 5.7 0.5 8.2 1.6l-1.1 3c-2.5-1-4.9-1.6-7.2-1.6-1.8 0-3.3 0.4-4.3 1.2s-1.6 1.9-1.6 3.3c0 1 0.2 1.9 0.6 2.6s1 1.3 1.9 1.8c0.9 0.6 2.3 1.2 4.2 1.8 3.1 1.1 5.3 2.3 6.5 3.6 1.3 1.5 1.9 3.2 1.9 5.2z" class="st0"/>
			<path id="XMLID_33_" d="m311.3 45.5c0.6 0 1.2 0 1.7-0.1 0.6-0.1 1-0.2 1.3-0.3v2.6c-0.4 0.2-0.9 0.3-1.6 0.4s-1.4 0.2-1.9 0.2c-4.3 0-6.5-2.3-6.5-6.9v-13.3h-3.3v-1.6l3.2-1.4 1.4-4.8h2v5.2h6.5v2.6h-6.5v13.2c0 1.4 0.3 2.4 1 3.1s1.5 1.1 2.7 1.1z" class="st0"/>
			<path id="XMLID_35_" d="m327.7 25c1 0 1.9 0.1 2.7 0.2l-0.5 3.2c-0.9-0.2-1.8-0.3-2.5-0.3-1.8 0-3.4 0.7-4.7 2.2s-1.9 3.3-1.9 5.5v12.1h-3.4v-22.5h2.8l0.4 4.2h0.2c0.8-1.5 1.8-2.6 3-3.4s2.5-1.2 3.9-1.2z" class="st0"/>
			<path id="XMLID_37_" d="m342.8 48.3c-3.3 0-5.9-1-7.9-3-1.9-2-2.9-4.8-2.9-8.4s0.9-6.5 2.7-8.6 4.2-3.2 7.2-3.2c2.8 0 5 0.9 6.7 2.8s2.5 4.3 2.5 7.3v2.2h-15.5c0.1 2.6 0.7 4.6 2 6s3 2.1 5.3 2.1c2.4 0 4.8-0.5 7.2-1.5v3c-1.2 0.5-2.3 0.9-3.4 1.1-1.1 0.1-2.4 0.2-3.9 0.2zm-1-20.4c-1.8 0-3.2 0.6-4.3 1.8s-1.7 2.8-1.9 4.9h11.8c0-2.1-0.5-3.8-1.4-4.9-1-1.2-2.4-1.8-4.2-1.8z" class="st0"/>
			<path id="XMLID_40_" d="m365 48.3c-3.3 0-5.9-1-7.9-3-1.9-2-2.9-4.8-2.9-8.4s0.9-6.5 2.7-8.6 4.2-3.2 7.2-3.2c2.8 0 5 0.9 6.7 2.8s2.5 4.3 2.5 7.3v2.2h-15.5c0.1 2.6 0.7 4.6 2 6s3 2.1 5.3 2.1c2.4 0 4.8-0.5 7.2-1.5v3c-1.2 0.5-2.3 0.9-3.4 1.1-1.1 0.1-2.4 0.2-3.9 0.2zm-0.9-20.4c-1.8 0-3.2 0.6-4.3 1.8s-1.7 2.8-1.9 4.9h11.8c0-2.1-0.5-3.8-1.4-4.9-1.1-1.2-2.5-1.8-4.2-1.8z" class="st0"/>
			<path id="XMLID_43_" d="m385 45.5c0.6 0 1.2 0 1.7-0.1 0.6-0.1 1-0.2 1.3-0.3v2.6c-0.4 0.2-0.9 0.3-1.6 0.4s-1.4 0.2-1.9 0.2c-4.3 0-6.5-2.3-6.5-6.9v-13.3h-3.2v-1.6l3.2-1.5 1.4-4.8h2v5.2h6.5v2.6h-6.5v13.2c0 1.4 0.3 2.4 1 3.1s1.5 1.2 2.6 1.2z" class="st0"/>
			<path id="XMLID_45_" d="m414.1 39.6h-9.9l-4.3 8.3h-5.2l16.1-30h5.6l3.4 30h-4.8l-0.9-8.3zm-0.3-4.3c-0.5-5.7-0.9-9.1-0.9-10.3-0.1-1.2-0.1-2.1-0.1-2.9-0.8 1.9-1.7 4-2.9 6.3l-3.5 6.9h7.4z" class="st0"/>
			<path id="XMLID_48_" d="m439.7 39.1c0 2.9-1 5.1-3 6.7s-4.7 2.4-8.2 2.4c-2.9 0-5.2-0.5-7.1-1.5v-4.6c2.4 1.3 4.8 2 7.2 2 1.9 0 3.3-0.4 4.4-1.2s1.6-1.9 1.6-3.3c0-0.9-0.3-1.8-0.8-2.5-0.6-0.7-1.7-1.7-3.5-2.8-1.4-0.9-2.5-1.7-3.2-2.5s-1.2-1.6-1.6-2.5-0.5-1.9-0.5-3c0-1.8 0.4-3.3 1.3-4.7 0.8-1.4 2-2.4 3.6-3.1 1.5-0.7 3.3-1.1 5.2-1.1 2.8 0 5.4 0.6 7.8 1.9l-1.8 3.9c-2.2-1.1-4.2-1.6-6-1.6-1.5 0-2.7 0.4-3.6 1.2s-1.4 1.8-1.4 3.1c0 0.6 0.1 1.2 0.3 1.7s0.5 0.9 1 1.4c0.4 0.4 1.4 1.1 2.8 2 2.1 1.3 3.6 2.6 4.4 3.8 0.7 1.3 1.1 2.7 1.1 4.3z" class="st0"/>
			<path id="XMLID_50_" d="m459.9 21.7c-2.1 0-4 0.6-5.6 1.8s-3 3-4 5.3c-1 2.3-1.5 4.9-1.5 7.7 0 2.5 0.6 4.3 1.7 5.6s2.8 2 5 2c1.9 0 4.2-0.5 6.7-1.4v4.3c-2.5 0.9-5 1.4-7.7 1.4-3.4 0-6-1-8-3-1.9-2-2.9-4.9-2.9-8.5s0.7-6.9 2.2-9.9 3.4-5.4 5.8-7 5.2-2.4 8.2-2.4c3 0 5.6 0.6 8 1.9l-1.9 4c-0.9-0.5-1.8-0.9-2.7-1.2s-2.1-0.6-3.3-0.6z" class="st0"/>
		</g>
	</g>
</switch>
</svg>